Lab 1: Census Data Quality for Policy Decisions – Angie Kwon - MUSA 5080 Portfolio
…
# Calculate percentage of each group using mutate()
# Create percentages for white, Black, and Hispanic populations
race_eth_2022 <- race_eth_2022 %>%
  mutate(perW = (WhiteE/Total_PopE)*100,
         perB = (BlackE/Total_PopE)*100,
         perH = (Hisp_LatE/Total_PopE)*100)

# Add readable tract and county name columns using str_extract() or similar
race_eth_2022 <- race_eth_2022 %>%
  mutate(tract = str_extract(NAME, "[0-9.]+"),
         NAME = str_extract(NAME, "Oakland|Mackinac|Keweenaw"))

race_eth_2022

# A tibble: 359 × 14
   GEOID       NAME   WhiteE WhiteM BlackE BlackM Hisp_LatE Hisp_LatM Total_PopE
   <chr>       <chr>   <dbl>  <dbl>  <dbl>  <dbl>     <dbl>     <dbl>      <dbl>
 1 26083000100 Kewee…   1999      6      0     11        33         4       2086
 2 26083980100 Kewee…      2      1      0     11         0        11          2
 3 26083990100 Kewee…      0     11      0     11         0        11          0
 4 26097950100 Macki…   1536    238      0     11         0        11       1594
 5 26097950200 Macki…   1858    216      0     11        49        42       2399
 6 26097950300 Macki…   1485    185      3      4        13        12       1761
 7 26097950400 Macki…   1788    187    141    107       115        59       2900
 8 26097950500 Macki…   1126    142    264    119        75        42       2189
 9 26097990000 Macki…      0     11      0     11         0        11          0
10 26125120000 Oakla…   2910    279     20     21        20        24       3074
# ℹ 349 more rows
# ℹ 5 more variables: Total_PopM <dbl>, perW <dbl>, perB <dbl>, perH <dbl>,
#   tract <chr>
…
#misunderstood this as any variable, as in any of the 3 is high MOE
race_eth_2022 <- race_eth_2022 %>%
  mutate(MOE_cat = ifelse(MOE_perW > 15 | MOE_perB > 15 | MOE_perH > 15, 
                          "High MOE", "Low MOE"))
race_eth_2022$MOE_cat[is.na(race_eth_2022$MOE_cat)] <- "No Certainty"

#so second version where it's just black residents having high MOE
race_eth_2022 <- race_eth_2022 %>%
  mutate(MOE_catB = ifelse(MOE_perB > 15,
                          "High Black MOE", "Low Black MOE"))
race_eth_2022$MOE_catB[is.na(race_eth_2022$MOE_catB)] <- "No Certainty"

race_eth_2022

# A tibble: 359 × 19
   GEOID       NAME   WhiteE WhiteM BlackE BlackM Hisp_LatE Hisp_LatM Total_PopE
   <chr>       <chr>   <dbl>  <dbl>  <dbl>  <dbl>     <dbl>     <dbl>      <dbl>
 1 26083000100 Kewee…   1999      6      0     11        33         4       2086
 2 26083980100 Kewee…      2      1      0     11         0        11          2
 3 26083990100 Kewee…      0     11      0     11         0        11          0
 4 26097950100 Macki…   1536    238      0     11         0        11       1594
 5 26097950200 Macki…   1858    216      0     11        49        42       2399
 6 26097950300 Macki…   1485    185      3      4        13        12       1761
 7 26097950400 Macki…   1788    187    141    107       115        59       2900
 8 26097950500 Macki…   1126    142    264    119        75        42       2189
 9 26097990000 Macki…      0     11      0     11         0        11          0
10 26125120000 Oakla…   2910    279     20     21        20        24       3074
# ℹ 349 more rows
# ℹ 10 more variables: Total_PopM <dbl>, perW <dbl>, perB <dbl>, perH <dbl>,
#   tract <chr>, MOE_perW <dbl>, MOE_perB <dbl>, MOE_perH <dbl>, MOE_cat <chr>,
#   MOE_catB <chr>
…
race_eth_2022 <- race_eth_2022 %>% 
  mutate(indv_MOE_cat = case_when(MOE_perW > 15 & MOE_perB > 15 & MOE_perH > 15 ~ 'All High MOE',
                                  MOE_perW < 15 & MOE_perB < 15 & MOE_perH < 15 ~ 'All Low MOE',
                                  MOE_perW > 15 & MOE_perB > 15 | MOE_perH > 15 ~ 'Two High MOE',
                                  MOE_perW > 15 | MOE_perB > 15 & MOE_perH > 15 ~ 'Two High MOE',
                                  MOE_perW > 15 & MOE_perH > 15 | MOE_perB > 15 ~ 'Two High MOE',
                                  is.na(MOE_perW) | is.na(MOE_perH) | is.na(MOE_perB) ~ 'At least one NA',
                                   TRUE ~ 'One High MOE'))
race_eth_2022

# A tibble: 359 × 20
   GEOID       NAME   WhiteE WhiteM BlackE BlackM Hisp_LatE Hisp_LatM Total_PopE
   <chr>       <chr>   <dbl>  <dbl>  <dbl>  <dbl>     <dbl>     <dbl>      <dbl>
 1 26083000100 Kewee…   1999      6      0     11        33         4       2086
 2 26083980100 Kewee…      2      1      0     11         0        11          2
 3 26083990100 Kewee…      0     11      0     11         0        11          0
 4 26097950100 Macki…   1536    238      0     11         0        11       1594
 5 26097950200 Macki…   1858    216      0     11        49        42       2399
 6 26097950300 Macki…   1485    185      3      4        13        12       1761
 7 26097950400 Macki…   1788    187    141    107       115        59       2900
 8 26097950500 Macki…   1126    142    264    119        75        42       2189
 9 26097990000 Macki…      0     11      0     11         0        11          0
10 26125120000 Oakla…   2910    279     20     21        20        24       3074
# ℹ 349 more rows
# ℹ 11 more variables: Total_PopM <dbl>, perW <dbl>, perB <dbl>, perH <dbl>,
#   tract <chr>, MOE_perW <dbl>, MOE_perB <dbl>, MOE_perH <dbl>, MOE_cat <chr>,
#   MOE_catB <chr>, indv_MOE_cat <chr>
…
# A tibble: 3 × 6
  indv_MOE_cat    avg_pop avg_W_per avg_B_per avg_H_per count
  <chr>             <dbl>     <dbl>     <dbl>     <dbl> <int>
1 All High MOE      3577.      58.6     21.6       5.61   165
2 At least one NA    261.      95.8      0         1.58     8
3 Two High MOE      3725.      79.0      7.12      3.71   186

#just white residents having high MOE
race_eth_2022 <- race_eth_2022 %>%
  mutate(MOE_catW = ifelse(MOE_perW > 15,
                          "High White MOE", "Low White MOE"))
race_eth_2022$MOE_catW[is.na(race_eth_2022$MOE_catW)] <- "No Certainty"
race_eth_2022

# A tibble: 359 × 21
   GEOID       NAME   WhiteE WhiteM BlackE BlackM Hisp_LatE Hisp_LatM Total_PopE
   <chr>       <chr>   <dbl>  <dbl>  <dbl>  <dbl>     <dbl>     <dbl>      <dbl>
 1 26083000100 Kewee…   1999      6      0     11        33         4       2086
 2 26083980100 Kewee…      2      1      0     11         0        11          2
 3 26083990100 Kewee…      0     11      0     11         0        11          0
 4 26097950100 Macki…   1536    238      0     11         0        11       1594
 5 26097950200 Macki…   1858    216      0     11        49        42       2399
 6 26097950300 Macki…   1485    185      3      4        13        12       1761
 7 26097950400 Macki…   1788    187    141    107       115        59       2900
 8 26097950500 Macki…   1126    142    264    119        75        42       2189
 9 26097990000 Macki…      0     11      0     11         0        11          0
10 26125120000 Oakla…   2910    279     20     21        20        24       3074
# ℹ 349 more rows
# ℹ 12 more variables: Total_PopM <dbl>, perW <dbl>, perB <dbl>, perH <dbl>,
#   tract <chr>, MOE_perW <dbl>, MOE_perB <dbl>, MOE_perH <dbl>, MOE_cat <chr>,
#   MOE_catB <chr>, indv_MOE_cat <chr>, MOE_catW <chr>
…
#just hispanic residents having high MOE
race_eth_2022 <- race_eth_2022 %>%
  mutate(MOE_catH = ifelse(MOE_perH > 15,
                          "High Hispanic MOE", "Low Hispanic MOE"))
race_eth_2022$MOE_catH[is.na(race_eth_2022$MOE_catH)] <- "No Certainty"
race_eth_2022

# A tibble: 359 × 22
   GEOID       NAME   WhiteE WhiteM BlackE BlackM Hisp_LatE Hisp_LatM Total_PopE
   <chr>       <chr>   <dbl>  <dbl>  <dbl>  <dbl>     <dbl>     <dbl>      <dbl>
 1 26083000100 Kewee…   1999      6      0     11        33         4       2086
 2 26083980100 Kewee…      2      1      0     11         0        11          2
 3 26083990100 Kewee…      0     11      0     11         0        11          0
 4 26097950100 Macki…   1536    238      0     11         0        11       1594
 5 26097950200 Macki…   1858    216      0     11        49        42       2399
 6 26097950300 Macki…   1485    185      3      4        13        12       1761
 7 26097950400 Macki…   1788    187    141    107       115        59       2900
 8 26097950500 Macki…   1126    142    264    119        75        42       2189
 9 26097990000 Macki…      0     11      0     11         0        11          0
10 26125120000 Oakla…   2910    279     20     21        20        24       3074
# ℹ 349 more rows
# ℹ 13 more variables: Total_PopM <dbl>, perW <dbl>, perB <dbl>, perH <dbl>,
#   tract <chr>, MOE_perW <dbl>, MOE_perB <dbl>, MOE_perH <dbl>, MOE_cat <chr>,
#   MOE_catB <chr>, indv_MOE_cat <chr>, MOE_catW <chr>, MOE_catH <chr>
…
It’s likely that Black and Hispanic people don’t live in these areas, either by change or systemic disadvantages, as seen in the case of redlining. This may lead to problems of reinforcing euro- white-centric social norms with the policies reflecting and amplifying that. The cause of both the bad data quality and bias risk may be due to human bias, where certain White surveyors might be unwilling to approach or collect data from non-White residents, consciously or not. If done subconsciously, this could lead to the belief that the data is impartial and representative, when that may not be the case.

There are plenty of psychology studies showing that even just acknowledging you might have bias leads to you to think through your actions more consciously and reduce personal biases. Employee workshops to increase self-awareness in such a manner might be a simple but effective technique to start address these systematic issues. Another thing to do would be to take a closer look at all the data, including other variables not just income, and across all other intersections of identities, to make sure no one get swept under the rug. Taking a closer look at the data would also reveal where there are outliers versus actual pattern. If a county seems to be an outlier in every single analyses, a closer look should be taken to try to resolve any disparities.

6.3 Specific Recommendations

Your Task: Create a decision framework for algorithm implementation.

# Create a summary table using your county reliability data
# Include: county name, median income, MOE percentage, reliability category
county_reliability <- MI_2022[,c(2,3,7,8)]
county_reliability

# A tibble: 83 × 4
   NAME    med_HH_incE MOE_per reli_cat           
   <chr>         <dbl>   <dbl> <chr>              
 1 Alcona        50295    4.46 High Confidence    
 2 Alger         55528    5.24 Moderate Confidence
 3 Allegan       75543    3.14 High Confidence    
 4 Alpena        49133    4.31 High Confidence    
 5 Antrim        68850    4.52 High Confidence    
 6 Arenac        53487    3.77 High Confidence    
 7 Baraga        51911    5.59 Moderate Confidence
 8 Barry         75182    3.60 High Confidence    
 9 Bay           57887    4.14 High Confidence    
10 Benzie        71327    5.97 Moderate Confidence
# ℹ 73 more rows
…
